Name|@Image|Type|Sub Type|Rarity|Attack|Defence|Resource|Keywords|Ability|Death Zone Ability|Flavour Text||
Pari Acolyte||Unit||Common|1|1|Air||||||
Pari Sage||Unit||Common|2|1|Air||\flying||||
Pari General||Unit||Rare|3|5|Air||\all{Pari}{you}<boon>{1}{1}||||
Gale Force Winds||Conjured||Uncommon|-|-|Air||\all{unit}{all}<destroy>|\target{unit}<bounce>{hand}{2}|||
Pari Reinforcements||Conjured||Uncommon|-|-|Air||"\create{token}{unit}{you|}<token>{2}{1}{1}[Pari Guards}[flying]"|\token{2}{1}{1}[Pari Guards}<flying>|||
Fan the Flames||Trick||Common|-|-|Air / Fire||\target{Unit}{any}<fury><boon>{1}{1}|\all{Unit}[you]<Stand><cannotattack>|||
Against the Wind||Trick||Common|-|-|Air||\target{Unit}{any}<bounce>{hand}{1}|\target{Unit}<Boon>{0}{4}[eot]|||
With The Wind||Enhancement||Uncommon|-|-|Air||\all{Units}{you}<haste>||||
Icy Touch||Enhancement||Common|-|-|Air||\target{Unit}{any}<cannotattackorblock>||||
Wind Turbine||Enhancement||Rare|-|-|Air||\activate{token}{expay}{1}[1]{unit}{you}<token>{1}{1}{2}[Wind Spirit}[flying]||||
Winds of Change||Trick||Unique|-|-|Air||\all{resouce}{you}<return>{hand}[upto]|\target{Resource}<stand>{3}|||
Lizard Man Farmer||Unit||Common|1|1|Fire||||||
Dragon Caller||Unit||Uncommon|2|2|Fire||\activate{target}{expay}{2}[1]{player}{any}<search>[unit][hand]||||
Fire Juggler||Unit||Uncommon|2|2|Fire||\activate{target}{exhaust}{card}{you}<move>{hand}[Chronical]{1}<draw>{2} ||||
Comet Storm||Conjured||Uncommon|~|~|Fire||Comet Storm deal X damage to each unit and opponent.|\target{Unit}<destroy>|||
Purifying Flame||Conjured||Uncommon|~|~|Fire||\all{Enhancments}{player}<Destroy>|\target{enhanment}<move>[grave]{hand}|||
Goblin Burrow||Trick||Common|~|~|Fire||\create{token}{unit}{you}<token>{2}{1}{1}[Goblin]|\target{unit}<haste>|||
Fire Ball ||Trick||Uncommon |~|~|Fire ||\target{Perm}{any}<damage>{3}|\token{unit}{1}{3}{3}[Flame Spirit]<flying>|||
Heat Wave||Enhancement ||Uncommon|-|-|Fire||\all{Units}{you}<boon>{1}{1}||||Ethla 
Camp Fire||Enhancement||Uncommon|~|~|Fire||\foreach{target}{unit}{you}[exhausted]<reduce>{damage}{1}||||
Magma Breath||Enhancement||Common|~|~|Fire||\activate{activate}{pay}{0}[1]{you}<boon>{1}{0}[eot]||||
Elder Dragon||Unit||Rare|5|5|Fire||\activate{activate}{pay}{0}[1]{you}<boon>{1}{0}[eot]||||
Endless Battle||Enhancement ||Unique|~|~|Fire ||Whenever a unit deals combat damage you may Stand an other target unit. That unit may attack again this turn.|\target{Unit}<Fury>| ||i do understand this is infinite combat that's the idea 
